[gd_scene load_steps=4 format=2]

[ext_resource path="res://entities/characters/enemy/cop/sprite/CopSprite.gd" type="Script" id=1]
[ext_resource path="res://entities/characters/enemy/torpedo/torpedo.png" type="Texture" id=2]

[sub_resource type="Animation" id=1]

resource_name = "fly"
length = 1.0
loop = true
step = 0.1
tracks/0/type = "value"
tracks/0/path = NodePath("torpedo:position")
tracks/0/interp = 1
tracks/0/loop_wrap = true
tracks/0/imported = false
tracks/0/enabled = true
tracks/0/keys = {
"times": PoolRealArray( 0, 0.5 ),
"transitions": PoolRealArray( 1, 1 ),
"update": 0,
"values": [ Vector2( -0.889587, -71.7228 ), Vector2( -0.889587, -151.723 ) ]
}

[node name="TorpedoSprite" type="Node2D"]

use_parent_material = true
scale = Vector2( 0.05, 0.05 )
script = ExtResource( 1 )
_sections_unfolded = [ "Material", "Transform" ]

[node name="Shadow" type="Polygon2D" parent="." index="0"]

polygon = PoolVector2Array( -41.398, 194.426, 21.1005, 219.426, 126.654, 211.093, 244.707, 138.872, 296.094, 72.2068, 284.983, 15.2637, 250.262, -11.1246, 100.265, -18.0689, -58.0643, 72.2068, -83.0638, 154.149 )
uv = PoolVector2Array(  )
color = Color( 0, 0, 0, 0.501961 )
vertex_colors = PoolColorArray(  )
offset = Vector2( 0, 0 )
antialiased = false
texture = null
texture_offset = Vector2( 0, 0 )
texture_scale = Vector2( 1, 1 )
texture_rotation_degrees = 0.0
invert_enable = false
invert_border = 100.0

[node name="torpedo" type="Sprite" parent="." index="1"]

use_parent_material = true
position = Vector2( -0.889587, -148.488 )
texture = ExtResource( 2 )
_sections_unfolded = [ "Material", "Transform" ]

[node name="AnimationPlayer" type="AnimationPlayer" parent="." index="2"]

root_node = NodePath("..")
autoplay = "fly"
playback_process_mode = 1
playback_default_blend_time = 0.0
playback_speed = 1.0
anims/fly = SubResource( 1 )
blend_times = [  ]


