[gd_scene load_steps=3 format=2]

[ext_resource path="res://entities/projectiles/EnemyProjectile.tscn" type="PackedScene" id=1]
[ext_resource path="res://entities/Entity.gd" type="Script" id=2]

[node name="EnemyProjectile" instance=ExtResource( 1 )]

scale = Vector2( 0.65, 0.65 )
input_pickable = false
collision_layer = 1
collision_mask = 1
collision/safe_margin = 0.08
script = ExtResource( 2 )
_sections_unfolded = [ "Collision", "Transform" ]
can_be_invulnerable = false

[node name="Polygon2D" parent="." index="1"]

color = Color( 0.0402503, 0.648438, 0.0354614, 1 )


