[gd_scene load_steps=4 format=2]

[ext_resource path="res://entities/components/parts/Part.tscn" type="PackedScene" id=1]
[ext_resource path="res://entities/components/parts/flamethrower.png" type="Texture" id=2]
[ext_resource path="res://entities/projectiles/FlameProjectile.tscn" type="PackedScene" id=3]

[node name="FlameThrower" instance=ExtResource( 1 )]

title = "Flame Thrower"
description = "Spread Fire"
icon = ExtResource( 2 )
bullet_type = ExtResource( 3 )
bullet_damage_multiplier = -0.6
bullet_speed_multiplier = -0.3
fire_rate_multiplier = 10.0
spread_bonus = 40


