[gd_scene load_steps=3 format=2]

[ext_resource path="res://entities/components/parts/Part.gd" type="Script" id=1]
[ext_resource path="res://entities/components/parts/iron_boots.png" type="Texture" id=2]

[node name="IronBoots" type="Node"]

script = ExtResource( 1 )
title = "Iron Boots"
description = "-Move Speed"
icon = ExtResource( 2 )
def_bonus = 0
max_hp_bonus = 0
regen_bonus = 0
bullet_type = null
bullet_damage_multiplier = 0
bullet_speed_multiplier = 0
bullet_hp_bonus = 0
fire_rate_multiplier = 0
spread_bonus = 0
burst_rate_bonus = 0
burst_quantity_bonus = 0
max_movement_multiplier = -0.5
slot_index = null


