[gd_scene load_steps=3 format=2]

[ext_resource path="res://entities/components/parts/Part.tscn" type="PackedScene" id=1]
[ext_resource path="res://entities/components/parts/smg.png" type="Texture" id=2]

[node name="Part" instance=ExtResource( 1 )]

title = "SubMachineGun"
description = "+Fire Rate"
icon = ExtResource( 2 )
bullet_damage_multiplier = -0.5
fire_rate_multiplier = 3.0


