[gd_resource type="StyleBoxFlat" format=2]

[resource]

content_margin_left = 8.0
content_margin_right = 8.0
content_margin_top = 8.0
content_margin_bottom = 8.0
bg_color = Color( 0.0595741, 0.0561523, 0.0898438, 1 )
draw_center = true
border_width_left = 0
border_width_top = 0
border_width_right = 0
border_width_bottom = 0
border_color = Color( 0.8, 0.8, 0.8, 1 )
border_blend = false
corner_radius_top_left = 15
corner_radius_top_right = 15
corner_radius_bottom_right = 15
corner_radius_bottom_left = 15
corner_detail = 8
expand_margin_left = 0.0
expand_margin_right = 0.0
expand_margin_top = 0.0
expand_margin_bottom = 0.0
shadow_color = Color( 0, 0, 0, 0.6 )
shadow_size = 0
anti_aliasing = true
anti_aliasing_size = 1
_sections_unfolded = [ "Content Margin", "Corner Radius" ]

