[gd_scene load_steps=2 format=2]

[ext_resource path="res://entities/Entity.gd" type="Script" id=1]

[node name="Entity" type="KinematicBody2D"]

input_pickable = false
collision_layer = 1
collision_mask = 1
collision/safe_margin = 0.08
script = ExtResource( 1 )
accel_mult = 1.0
max_movement_mult = 1.0
max_hp = 100
can_be_invulnerable = false


