[gd_scene load_steps=5 format=2]

[ext_resource path="res://rooms/Base.tscn" type="PackedScene" id=1]
[ext_resource path="res://rooms/events/PlayerSpawn.tscn" type="PackedScene" id=2]
[ext_resource path="res://rooms/objects/Door.tscn" type="PackedScene" id=3]
[ext_resource path="res://entities/characters/enemy/EnemyDefault.tscn" type="PackedScene" id=4]

[node name="Room" instance=ExtResource( 1 )]

[node name="Tiles" parent="." index="0"]

tile_data = PoolIntArray( -327684, 2, 131072, -327683, 2, 65539, -327682, 2, 65539, -327681, 2, 65539, -393216, 2, 131073, -262148, 2, 3, -262147, 2, 0, -262146, 2, 0, -262145, 2, 0, -327680, 2, 196610, -327679, 2, 65539, -327678, 2, 65539, -327677, 2, 65539, -327676, 2, 65539, -327675, 2, 65539, -327674, 2, 65539, -327673, 2, 65539, -327672, 2, 65539, -327671, 2, 65539, -327670, 2, 65539, -327669, 2, 65539, -327668, 2, 65539, -327667, 2, 65539, -327666, 2, 65539, -327665, 2, 65539, -327664, 2, 65539, -327663, 2, 65539, -327662, 2, 65539, -327661, 2, 65539, -327660, 2, 65539, -327659, 2, 65539, -327658, 2, 65539, -327657, 2, 65539, -327656, 2, 65539, -327655, 2, 65539, -327654, 2, 65539, -327653, 2, 65539, -327652, 2, 65539, -327651, 2, 65539, -327650, 2, 65539, -327649, 2, 65539, -327648, 2, 65539, -327647, 2, 65539, -327646, 2, 65539, -327645, 2, 131073, -196612, 2, 3, -196611, 2, 0, -196610, 2, 0, -196609, 2, 0, -262144, 2, 0, -262143, 2, 0, -262142, 2, 0, -262141, 2, 0, -262140, 2, 0, -262139, 2, 0, -262138, 2, 0, -262137, 2, 0, -262136, 2, 0, -262135, 2, 0, -262134, 2, 0, -262133, 2, 0, -262132, 2, 0, -262131, 2, 0, -262130, 2, 0, -262129, 2, 0, -262128, 2, 0, -262127, 2, 0, -262126, 2, 0, -262125, 2, 0, -262124, 2, 0, -262123, 2, 0, -262122, 2, 0, -262121, 2, 0, -262120, 2, 0, -262119, 2, 0, -262118, 2, 0, -262117, 2, 0, -262116, 2, 0, -262115, 2, 0, -262114, 2, 0, -262113, 2, 0, -262112, 2, 0, -262111, 2, 0, -262110, 2, 0, -262109, 2, 65538, -131076, 2, 3, -131075, 2, 0, -131074, 2, 0, -131073, 2, 0, -196608, 2, 0, -196607, 2, 0, -196606, 2, 0, -196605, 2, 0, -196604, 2, 0, -196603, 2, 0, -196602, 2, 0, -196601, 2, 0, -196600, 2, 0, -196599, 2, 0, -196598, 2, 0, -196597, 2, 0, -196596, 2, 0, -196595, 2, 0, -196594, 2, 0, -196593, 2, 0, -196592, 2, 0, -196591, 2, 0, -196590, 2, 0, -196589, 2, 0, -196588, 2, 0, -196587, 2, 0, -196586, 2, 0, -196585, 2, 0, -196584, 2, 0, -196583, 2, 0, -196582, 2, 0, -196581, 2, 0, -196580, 2, 0, -196579, 2, 0, -196578, 2, 0, -196577, 2, 0, -196576, 2, 0, -196575, 2, 0, -196574, 2, 0, -196573, 2, 65538, -65540, 2, 3, -65539, 2, 0, -65538, 2, 0, -65537, 2, 0, -131072, 2, 0, -131071, 2, 0, -131070, 2, 0, -131069, 2, 0, -131068, 2, 0, -131067, 2, 0, -131066, 2, 0, -131065, 2, 0, -131064, 2, 0, -131063, 2, 0, -131062, 2, 0, -131061, 2, 0, -131060, 2, 0, -131059, 2, 0, -131058, 2, 0, -131057, 2, 0, -131056, 2, 0, -131055, 2, 0, -131054, 2, 0, -131053, 2, 0, -131052, 2, 0, -131051, 2, 0, -131050, 2, 0, -131049, 2, 0, -131048, 2, 0, -131047, 2, 0, -131046, 2, 0, -131045, 2, 0, -131044, 2, 0, -131043, 2, 0, -131042, 2, 0, -131041, 2, 0, -131040, 2, 0, -131039, 2, 0, -131038, 2, 0, -131037, 2, 65538, -4, 2, 3, -3, 2, 0, -2, 2, 0, -1, 2, 0, -65536, 2, 0, -65535, 2, 0, -65534, 2, 0, -65533, 2, 0, -65532, 2, 0, -65531, 2, 0, -65530, 2, 0, -65529, 2, 0, -65528, 2, 0, -65527, 2, 0, -65526, 2, 0, -65525, 2, 0, -65524, 2, 0, -65523, 2, 0, -65522, 2, 0, -65521, 2, 0, -65520, 2, 0, -65519, 2, 0, -65518, 2, 0, -65517, 2, 0, -65516, 2, 0, -65515, 2, 0, -65514, 2, 0, -65513, 2, 0, -65512, 2, 0, -65511, 2, 0, -65510, 2, 0, -65509, 2, 0, -65508, 2, 0, -65507, 2, 0, -65506, 2, 0, -65505, 2, 0, -65504, 2, 0, -65503, 2, 0, -65502, 2, 0, -65501, 2, 65538, 65532, 2, 3, 65533, 2, 0, 65534, 2, 0, 65535, 2, 0, 0, 2, 131074, 1, 2, 2, 2, 2, 2, 3, 2, 2, 4, 2, 2, 5, 2, 2, 6, 2, 2, 7, 2, 2, 8, 2, 2, 9, 2, 2, 10, 2, 2, 11, 2, 2, 12, 2, 2, 13, 2, 2, 14, 2, 2, 15, 2, 2, 16, 2, 2, 17, 2, 2, 18, 2, 2, 19, 2, 2, 20, 2, 2, 21, 2, 2, 22, 2, 2, 23, 2, 2, 24, 2, 2, 25, 2, 2, 26, 2, 2, 27, 2, 2, 28, 2, 2, 29, 2, 2, 30, 2, 131075, 31, 2, 0, 32, 2, 0, 33, 2, 0, 34, 2, 0, 35, 2, 65538, 131068, 2, 3, 131069, 2, 0, 131070, 2, 0, 131071, 2, 0, 65536, 2, 65538, 65537, 1, 0, 65538, 1, 0, 65539, 1, 0, 65540, 1, 0, 65541, 1, 0, 65542, 1, 0, 65543, 1, 0, 65544, 1, 0, 65545, 1, 0, 65546, 1, 0, 65547, 1, 0, 65548, 1, 0, 65549, 1, 0, 65550, 1, 0, 65551, 1, 0, 65552, 1, 0, 65553, 1, 0, 65554, 1, 0, 65555, 1, 0, 65556, 1, 0, 65557, 1, 0, 65558, 1, 0, 65559, 1, 0, 65560, 1, 0, 65561, 1, 0, 65562, 1, 0, 65563, 1, 0, 65564, 1, 0, 65565, 1, 0, 65566, 2, 3, 65567, 2, 0, 65568, 2, 0, 65569, 2, 0, 65570, 2, 0, 65571, 2, 65538, 196604, 2, 3, 196605, 2, 0, 196606, 2, 0, 196607, 2, 0, 131072, 2, 65538, 131073, 1, 0, 131074, 1, 0, 131075, 1, 0, 131076, 1, 0, 131077, 1, 0, 131078, 1, 0, 131079, 1, 0, 131080, 1, 0, 131081, 1, 0, 131082, 1, 0, 131083, 1, 0, 131084, 1, 0, 131085, 1, 0, 131086, 1, 0, 131087, 1, 0, 131088, 1, 0, 131089, 1, 0, 131090, 1, 0, 131091, 1, 0, 131092, 1, 0, 131093, 1, 0, 131094, 1, 0, 131095, 1, 0, 131096, 1, 0, 131097, 1, 0, 131098, 1, 0, 131099, 1, 0, 131100, 1, 0, 131101, 1, 0, 131102, 2, 3, 131103, 2, 0, 131104, 2, 0, 131105, 2, 0, 131106, 2, 0, 131107, 2, 65538, 262140, 2, 3, 262141, 2, 0, 262142, 2, 0, 262143, 2, 0, 196608, 2, 65538, 196609, 1, 0, 196610, 1, 0, 196611, 1, 0, 196612, 1, 0, 196613, 1, 0, 196614, 1, 0, 196615, 1, 0, 196616, 1, 0, 196617, 1, 0, 196618, 1, 0, 196619, 1, 0, 196620, 1, 0, 196621, 1, 0, 196622, 1, 0, 196623, 1, 0, 196624, 1, 0, 196625, 1, 0, 196626, 1, 0, 196627, 1, 0, 196628, 1, 0, 196629, 1, 0, 196630, 1, 0, 196631, 1, 0, 196632, 1, 0, 196633, 1, 0, 196634, 1, 0, 196635, 1, 0, 196636, 1, 0, 196637, 1, 0, 196638, 2, 3, 196639, 2, 0, 196640, 2, 0, 196641, 2, 0, 196642, 2, 0, 196643, 2, 65538, 327676, 2, 3, 327677, 2, 0, 327678, 2, 0, 327679, 2, 0, 262144, 2, 65538, 262145, 1, 0, 262146, 1, 0, 262147, 1, 0, 262148, 1, 0, 262149, 1, 0, 262150, 1, 0, 262151, 1, 0, 262152, 1, 0, 262153, 1, 0, 262154, 1, 0, 262155, 1, 0, 262156, 1, 0, 262157, 1, 0, 262158, 1, 0, 262159, 1, 0, 262160, 1, 0, 262161, 1, 0, 262162, 1, 0, 262163, 1, 0, 262164, 1, 0, 262165, 1, 0, 262166, 1, 0, 262167, 1, 0, 262168, 1, 0, 262169, 1, 0, 262170, 1, 0, 262171, 1, 0, 262172, 1, 0, 262173, 1, 0, 262174, 2, 3, 262175, 2, 0, 262176, 2, 0, 262177, 2, 0, 262178, 2, 0, 262179, 2, 65538, 393212, 2, 3, 393213, 2, 0, 393214, 2, 0, 393215, 2, 0, 327680, 2, 65538, 327681, 1, 0, 327682, 1, 0, 327683, 1, 0, 327684, 1, 0, 327685, 1, 0, 327686, 1, 0, 327687, 1, 0, 327688, 1, 0, 327689, 1, 0, 327690, 1, 0, 327691, 1, 0, 327692, 1, 0, 327693, 1, 0, 327694, 1, 0, 327695, 1, 0, 327696, 1, 0, 327697, 1, 0, 327698, 1, 0, 327699, 1, 0, 327700, 1, 0, 327701, 1, 0, 327702, 1, 0, 327703, 1, 0, 327704, 1, 0, 327705, 1, 0, 327706, 1, 0, 327707, 1, 0, 327708, 1, 0, 327709, 1, 0, 327710, 2, 3, 327711, 2, 0, 327712, 2, 0, 327713, 2, 0, 327714, 2, 0, 327715, 2, 65538, 458748, 2, 3, 458749, 2, 0, 458750, 2, 0, 458751, 2, 0, 393216, 2, 65538, 393217, 1, 0, 393218, 1, 0, 393219, 1, 0, 393220, 1, 0, 393221, 1, 0, 393222, 1, 0, 393223, 1, 0, 393224, 1, 0, 393225, 1, 0, 393226, 1, 0, 393227, 1, 0, 393228, 1, 0, 393229, 1, 0, 393230, 1, 0, 393231, 1, 0, 393232, 1, 0, 393233, 1, 0, 393234, 1, 0, 393235, 1, 0, 393236, 1, 0, 393237, 1, 0, 393238, 1, 0, 393239, 1, 0, 393240, 1, 0, 393241, 1, 0, 393242, 1, 0, 393243, 1, 0, 393244, 1, 0, 393245, 1, 0, 393246, 2, 3, 393247, 2, 0, 393248, 2, 0, 393249, 2, 0, 393250, 2, 0, 393251, 2, 65538, 524284, 2, 3, 524285, 2, 0, 524286, 2, 0, 524287, 2, 0, 458752, 2, 65538, 458753, 1, 0, 458754, 1, 0, 458755, 1, 0, 458756, 1, 0, 458757, 1, 0, 458758, 1, 0, 458759, 1, 0, 458760, 1, 0, 458761, 1, 0, 458762, 1, 0, 458763, 1, 0, 458764, 1, 0, 458765, 1, 0, 458766, 1, 0, 458767, 1, 0, 458768, 1, 0, 458769, 1, 0, 458770, 1, 0, 458771, 1, 0, 458772, 1, 0, 458773, 1, 0, 458774, 1, 0, 458775, 1, 0, 458776, 1, 0, 458777, 1, 0, 458778, 1, 0, 458779, 1, 0, 458780, 1, 0, 458781, 1, 0, 458782, 2, 3, 458783, 2, 0, 458784, 2, 0, 458785, 2, 0, 458786, 2, 0, 458787, 2, 65538, 589820, 2, 3, 589821, 2, 0, 589822, 2, 0, 589823, 2, 0, 524288, 2, 65538, 524289, 1, 0, 524290, 1, 0, 524291, 1, 0, 524292, 1, 0, 524293, 1, 0, 524294, 1, 0, 524295, 1, 0, 524296, 1, 0, 524297, 1, 0, 524298, 1, 0, 524299, 1, 0, 524300, 1, 0, 524301, 1, 0, 524302, 1, 0, 524303, 1, 0, 524304, 1, 0, 524305, 1, 0, 524306, 1, 0, 524307, 1, 0, 524308, 1, 0, 524309, 1, 0, 524310, 1, 0, 524311, 1, 0, 524312, 1, 0, 524313, 1, 0, 524314, 1, 0, 524315, 1, 0, 524316, 1, 0, 524317, 1, 0, 524318, 2, 3, 524319, 2, 0, 524320, 2, 0, 524321, 2, 0, 524322, 2, 0, 524323, 2, 65538, 655356, 2, 3, 655357, 2, 0, 655358, 2, 0, 655359, 2, 0, 589824, 2, 65538, 589825, 1, 0, 589826, 1, 0, 589827, 1, 0, 589828, 1, 0, 589829, 1, 0, 589830, 1, 0, 589831, 1, 0, 589832, 1, 0, 589833, 1, 0, 589834, 1, 0, 589835, 1, 0, 589836, 1, 0, 589837, 1, 0, 589838, 1, 0, 589839, 1, 0, 589840, 1, 0, 589841, 1, 0, 589842, 1, 0, 589843, 1, 0, 589844, 1, 0, 589845, 1, 0, 589846, 1, 0, 589847, 1, 0, 589848, 1, 0, 589849, 1, 0, 589850, 1, 0, 589851, 1, 0, 589852, 1, 0, 589853, 1, 0, 589854, 2, 3, 589855, 2, 0, 589856, 2, 0, 589857, 2, 0, 589858, 2, 0, 589859, 2, 65538, 720892, 2, 3, 720893, 2, 0, 720894, 2, 0, 720895, 2, 0, 655360, 2, 65538, 655361, 1, 0, 655362, 1, 0, 655363, 1, 0, 655364, 1, 0, 655365, 1, 0, 655366, 1, 0, 655367, 1, 0, 655368, 1, 0, 655369, 1, 0, 655370, 1, 0, 655371, 1, 0, 655372, 1, 0, 655373, 1, 0, 655374, 1, 0, 655375, 1, 0, 655376, 1, 0, 655377, 1, 0, 655378, 1, 0, 655379, 1, 0, 655380, 1, 0, 655381, 1, 0, 655382, 1, 0, 655383, 1, 0, 655384, 1, 0, 655385, 1, 0, 655386, 1, 0, 655387, 1, 0, 655388, 1, 0, 655389, 1, 0, 655390, 2, 3, 655391, 2, 0, 655392, 2, 0, 655393, 2, 0, 655394, 2, 0, 655395, 2, 65538, 786428, 2, 3, 786429, 2, 0, 786430, 2, 0, 786431, 2, 0, 720896, 2, 65538, 720897, 1, 0, 720898, 1, 0, 720899, 1, 0, 720900, 1, 0, 720901, 1, 0, 720902, 1, 0, 720903, 1, 0, 720904, 1, 0, 720905, 1, 0, 720906, 1, 0, 720907, 1, 0, 720908, 1, 0, 720909, 1, 0, 720910, 1, 0, 720911, 1, 0, 720912, 1, 0, 720913, 1, 0, 720914, 1, 0, 720915, 1, 0, 720916, 1, 0, 720917, 1, 0, 720918, 1, 0, 720919, 1, 0, 720920, 1, 0, 720921, 1, 0, 720922, 1, 0, 720923, 1, 0, 720924, 1, 0, 720925, 1, 0, 720926, 2, 3, 720927, 2, 0, 720928, 2, 0, 720929, 2, 0, 720930, 2, 0, 720931, 2, 65538, 851964, 2, 3, 851965, 2, 0, 851966, 2, 0, 851967, 2, 0, 786432, 2, 65538, 786433, 1, 0, 786434, 1, 0, 786435, 1, 0, 786436, 1, 0, 786437, 1, 0, 786438, 1, 0, 786439, 1, 0, 786440, 1, 0, 786441, 1, 0, 786442, 1, 0, 786443, 1, 0, 786444, 1, 0, 786445, 1, 0, 786446, 1, 0, 786447, 1, 0, 786448, 1, 0, 786449, 1, 0, 786450, 1, 0, 786451, 1, 0, 786452, 1, 0, 786453, 1, 0, 786454, 1, 0, 786455, 1, 0, 786456, 1, 0, 786457, 1, 0, 786458, 1, 0, 786459, 1, 0, 786460, 1, 0, 786461, 1, 0, 786462, 2, 3, 786463, 2, 0, 786464, 2, 0, 786465, 2, 0, 786466, 2, 0, 786467, 2, 65538, 917500, 2, 3, 917501, 2, 0, 917502, 2, 0, 917503, 2, 0, 851968, 2, 65538, 851969, 1, 0, 851970, 1, 0, 851971, 1, 0, 851972, 1, 0, 851973, 1, 0, 851974, 1, 0, 851975, 1, 0, 851976, 1, 0, 851977, 1, 0, 851978, 1, 0, 851979, 1, 0, 851980, 1, 0, 851981, 1, 0, 851982, 1, 0, 851983, 1, 0, 851984, 1, 0, 851985, 1, 0, 851986, 1, 0, 851987, 1, 0, 851988, 1, 0, 851989, 1, 0, 851990, 1, 0, 851991, 1, 0, 851992, 1, 0, 851993, 1, 0, 851994, 1, 0, 851995, 1, 0, 851996, 1, 0, 851997, 1, 0, 851998, 2, 3, 851999, 2, 0, 852000, 2, 0, 852001, 2, 0, 852002, 2, 0, 852003, 2, 65538, 983036, 2, 3, 983037, 2, 0, 983038, 2, 0, 983039, 2, 0, 917504, 2, 65538, 917505, 1, 0, 917506, 1, 0, 917507, 1, 0, 917508, 1, 0, 917509, 1, 0, 917510, 1, 0, 917511, 1, 0, 917512, 1, 0, 917513, 1, 0, 917514, 1, 0, 917515, 1, 0, 917516, 1, 0, 917517, 1, 0, 917518, 1, 0, 917519, 1, 0, 917520, 1, 0, 917521, 1, 0, 917522, 1, 0, 917523, 1, 0, 917524, 1, 0, 917525, 1, 0, 917526, 1, 0, 917527, 1, 0, 917528, 1, 0, 917529, 1, 0, 917530, 1, 0, 917531, 1, 0, 917532, 1, 0, 917533, 1, 0, 917534, 2, 3, 917535, 2, 0, 917536, 2, 0, 917537, 2, 0, 917538, 2, 0, 917539, 2, 65538, 1048572, 2, 3, 1048573, 2, 0, 1048574, 2, 0, 1048575, 2, 0, 983040, 2, 65538, 983041, 1, 0, 983042, 1, 0, 983043, 1, 0, 983044, 1, 0, 983045, 1, 0, 983046, 1, 0, 983047, 1, 0, 983048, 1, 0, 983049, 1, 0, 983050, 1, 0, 983051, 1, 0, 983052, 1, 0, 983053, 1, 0, 983054, 1, 0, 983055, 1, 0, 983056, 1, 0, 983057, 1, 0, 983058, 1, 0, 983059, 1, 0, 983060, 1, 0, 983061, 1, 0, 983062, 1, 0, 983063, 1, 0, 983064, 1, 0, 983065, 1, 0, 983066, 1, 0, 983067, 1, 0, 983068, 1, 0, 983069, 1, 0, 983070, 2, 3, 983071, 2, 0, 983072, 2, 0, 983073, 2, 0, 983074, 2, 0, 983075, 2, 65538, 1114108, 2, 3, 1114109, 2, 0, 1114110, 2, 0, 1114111, 2, 0, 1048576, 2, 196610, 1048577, 2, 65539, 1048578, 2, 65539, 1048579, 2, 65539, 1048580, 2, 65539, 1048581, 2, 65539, 1048582, 2, 65539, 1048583, 2, 65539, 1048584, 2, 65539, 1048585, 2, 65539, 1048586, 2, 65539, 1048587, 2, 65539, 1048588, 2, 65539, 1048589, 2, 65539, 1048590, 2, 65539, 1048591, 2, 65539, 1048592, 2, 65539, 1048593, 2, 65539, 1048594, 2, 65539, 1048595, 2, 65539, 1048596, 2, 65539, 1048597, 2, 65539, 1048598, 2, 65539, 1048599, 2, 65539, 1048600, 2, 65539, 1048601, 2, 65539, 1048602, 2, 65539, 1048603, 2, 65539, 1048604, 2, 65539, 1048605, 2, 65539, 1048606, 2, 196611, 1048607, 2, 0, 1048608, 2, 0, 1048609, 2, 0, 1048610, 2, 0, 1048611, 2, 65538, 1179644, 2, 3, 1179645, 2, 0, 1179646, 2, 0, 1179647, 2, 0, 1114112, 2, 0, 1114113, 2, 0, 1114114, 2, 0, 1114115, 2, 0, 1114116, 2, 0, 1114117, 2, 0, 1114118, 2, 0, 1114119, 2, 0, 1114120, 2, 0, 1114121, 2, 0, 1114122, 2, 0, 1114123, 2, 0, 1114124, 2, 0, 1114125, 2, 0, 1114126, 2, 0, 1114127, 2, 0, 1114128, 2, 0, 1114129, 2, 0, 1114130, 2, 0, 1114131, 2, 0, 1114132, 2, 0, 1114133, 2, 0, 1114134, 2, 0, 1114135, 2, 0, 1114136, 2, 0, 1114137, 2, 0, 1114138, 2, 0, 1114139, 2, 0, 1114140, 2, 0, 1114141, 2, 0, 1114142, 2, 0, 1114143, 2, 0, 1114144, 2, 0, 1114145, 2, 0, 1114146, 2, 0, 1114147, 2, 65538, 1245180, 2, 3, 1245181, 2, 0, 1245182, 2, 0, 1245183, 2, 0, 1179648, 2, 0, 1179649, 2, 0, 1179650, 2, 0, 1179651, 2, 0, 1179652, 2, 0, 1179653, 2, 0, 1179654, 2, 0, 1179655, 2, 0, 1179656, 2, 0, 1179657, 2, 0, 1179658, 2, 0, 1179659, 2, 0, 1179660, 2, 0, 1179661, 2, 0, 1179662, 2, 0, 1179663, 2, 0, 1179664, 2, 0, 1179665, 2, 0, 1179666, 2, 0, 1179667, 2, 0, 1179668, 2, 0, 1179669, 2, 0, 1179670, 2, 0, 1179671, 2, 0, 1179672, 2, 0, 1179673, 2, 0, 1179674, 2, 0, 1179675, 2, 0, 1179676, 2, 0, 1179677, 2, 0, 1179678, 2, 0, 1179679, 2, 0, 1179680, 2, 0, 1179681, 2, 0, 1179682, 2, 0, 1179683, 2, 65538, 1310716, 2, 196608, 1310717, 2, 2, 1310718, 2, 2, 1310719, 2, 2, 1245184, 2, 2, 1245185, 2, 2, 1245186, 2, 2, 1245187, 2, 2, 1245188, 2, 2, 1245189, 2, 2, 1245190, 2, 2, 1245191, 2, 2, 1245192, 2, 2, 1245193, 2, 2, 1245194, 2, 2, 1245195, 2, 2, 1245196, 2, 2, 1245197, 2, 2, 1245198, 2, 2, 1245199, 2, 2, 1245200, 2, 2, 1245201, 2, 2, 1245202, 2, 2, 1245203, 2, 2, 1245204, 2, 2, 1245205, 2, 2, 1245206, 2, 2, 1245207, 2, 2, 1245208, 2, 2, 1245209, 2, 2, 1245210, 2, 2, 1245211, 2, 2, 1245212, 2, 2, 1245213, 2, 2, 1245214, 2, 2, 1245215, 2, 2, 1245216, 2, 2, 1245217, 2, 2, 1245218, 2, 2, 1245219, 2, 196609 )

[node name="InitDoor" parent="Entities" index="0"]

position = Vector2( 64, 512 )

[node name="PlayerSpawn" parent="Entities" index="1" instance=ExtResource( 2 )]

position = Vector2( 1616, 512 )
player_id = 1

[node name="Door" parent="Entities" index="2" instance=ExtResource( 3 )]

position = Vector2( 1856, 512 )
target_room = "res://rooms/tests/Room2.tscn"

[node name="EndCheck" parent="Entities" index="3"]

position = Vector2( 560, 672 )

[node name="EnemyDefault" parent="Entities" index="4" instance=ExtResource( 4 )]

position = Vector2( 696.669, 160.932 )
def = 0


