[gd_scene load_steps=5 format=2]

[ext_resource path="res://entities/characters/enemy/cop/sprite/CopSprite.gd" type="Script" id=1]
[ext_resource path="res://entities/characters/enemy/tank/sprite/weapon.png" type="Texture" id=2]
[ext_resource path="res://entities/characters/enemy/tank/sprite/body.png" type="Texture" id=3]

[sub_resource type="Animation" id=1]

resource_name = "drag"
length = 0.8
loop = true
step = 0.1
tracks/0/type = "value"
tracks/0/path = NodePath("body:position")
tracks/0/interp = 1
tracks/0/loop_wrap = true
tracks/0/imported = false
tracks/0/enabled = true
tracks/0/keys = {
"times": PoolRealArray( 0 ),
"transitions": PoolRealArray( 1 ),
"update": 0,
"values": [ Vector2( 173.507, -278.316 ) ]
}
tracks/1/type = "value"
tracks/1/path = NodePath("weapon:position")
tracks/1/interp = 1
tracks/1/loop_wrap = true
tracks/1/imported = false
tracks/1/enabled = true
tracks/1/keys = {
"times": PoolRealArray( 0, 0.2, 0.4, 0.6 ),
"transitions": PoolRealArray( 1, 1, 1, 1 ),
"update": 0,
"values": [ Vector2( -190.565, -238.262 ), Vector2( -190.565, -198.262 ), Vector2( -190.565, -238.262 ), Vector2( -190.565, -278.262 ) ]
}
tracks/2/type = "value"
tracks/2/path = NodePath("body:rotation_degrees")
tracks/2/interp = 1
tracks/2/loop_wrap = true
tracks/2/imported = false
tracks/2/enabled = true
tracks/2/keys = {
"times": PoolRealArray( 0, 0.2, 0.4, 0.6 ),
"transitions": PoolRealArray( 1, 1, 1, 1 ),
"update": 0,
"values": [ 0.0, 4.0, 0.0, -4.0 ]
}
tracks/3/type = "value"
tracks/3/path = NodePath("weapon:rotation_degrees")
tracks/3/interp = 1
tracks/3/loop_wrap = true
tracks/3/imported = false
tracks/3/enabled = true
tracks/3/keys = {
"times": PoolRealArray( 0 ),
"transitions": PoolRealArray( 1 ),
"update": 0,
"values": [ 0.0 ]
}

[node name="TankSprite" type="Node2D"]

use_parent_material = true
scale = Vector2( 0.15, 0.15 )
script = ExtResource( 1 )
_sections_unfolded = [ "Material", "Transform" ]

[node name="Shadow" type="Polygon2D" parent="." index="0"]

position = Vector2( -4.77982, 0 )
polygon = PoolVector2Array( -426.79, -8.68642, -479.368, 98.8594, -455.469, 158.607, -381.382, 220.745, -206.919, 266.153, -82.6441, 287.662, 94.209, 292.442, 330.81, 244.644, 498.103, 125.148, 510.053, -1.51672, 435.966, -51.7047, -3.77721, -123.402, -321.635, -63.6543 )
uv = PoolVector2Array(  )
color = Color( 0, 0, 0, 0.501961 )
vertex_colors = PoolColorArray(  )
offset = Vector2( 0, 0 )
antialiased = false
texture = null
texture_offset = Vector2( 0, 0 )
texture_scale = Vector2( 1, 1 )
texture_rotation_degrees = 0.0
invert_enable = false
invert_border = 100.0

[node name="weapon" type="Sprite" parent="." index="1"]

use_parent_material = true
position = Vector2( -190.565, -238.262 )
texture = ExtResource( 2 )
_sections_unfolded = [ "Material", "Transform" ]

[node name="body" type="Sprite" parent="." index="2"]

use_parent_material = true
position = Vector2( 173.507, -278.316 )
texture = ExtResource( 3 )
_sections_unfolded = [ "Material", "Transform" ]

[node name="AnimationPlayer" type="AnimationPlayer" parent="." index="3"]

root_node = NodePath("..")
autoplay = "drag"
playback_process_mode = 1
playback_default_blend_time = 0.0
playback_speed = 1.0
anims/drag = SubResource( 1 )
blend_times = [  ]


