[gd_scene load_steps=7 format=2]

[ext_resource path="res://rooms/objects/Altar.gd" type="Script" id=1]
[ext_resource path="res://rooms/objects/redAltar.png" type="Texture" id=2]
[ext_resource path="res://rooms/objects/altar_spawn.ogg" type="AudioStream" id=3]
[ext_resource path="res://rooms/objects/doors_unlocked.ogg" type="AudioStream" id=4]

[sub_resource type="RectangleShape2D" id=1]

custom_solver_bias = 0.0
extents = Vector2( 64, 64 )

[sub_resource type="RectangleShape2D" id=2]

custom_solver_bias = 0.0
extents = Vector2( 65.9142, 64 )

[node name="RedAltar" type="Area2D" index="0"]

input_pickable = true
gravity_vec = Vector2( 0, 1 )
gravity = 98.0
linear_damp = 0.1
angular_damp = 1.0
audio_bus_override = false
audio_bus_name = "Master"
script = ExtResource( 1 )
new_part_scene = null

[node name="plataforma" type="Sprite" parent="." index="0"]

texture = ExtResource( 2 )
_sections_unfolded = [ "Transform" ]

[node name="CollisionShape2D" type="CollisionShape2D" parent="." index="1"]

scale = Vector2( 1.02725, 0.791479 )
shape = SubResource( 1 )

[node name="StaticBody2D" type="StaticBody2D" parent="." index="2"]

input_pickable = false
collision_layer = 1
collision_mask = 1
constant_linear_velocity = Vector2( 0, 0 )
constant_angular_velocity = 0.0
friction = 1.0
bounce = 0.0

[node name="CollisionShape2D" type="CollisionShape2D" parent="StaticBody2D" index="0"]

scale = Vector2( 1, 0.801136 )
shape = SubResource( 2 )

[node name="SpawnAltar" type="AudioStreamPlayer" parent="." index="3"]

stream = ExtResource( 3 )
volume_db = 0.0
pitch_scale = 1.0
autoplay = false
mix_target = 0
bus = "Master"

[node name="OpenDoors" type="AudioStreamPlayer" parent="." index="4"]

stream = ExtResource( 4 )
volume_db = -10.0
pitch_scale = 1.0
autoplay = false
mix_target = 0
bus = "Master"


