[gd_scene load_steps=7 format=2]

[ext_resource path="res://entities/characters/enemy/EnemyDefault.tscn" type="PackedScene" id=1]
[ext_resource path="res://entities/characters/enemy/ceo/CEOSprite.tscn" type="PackedScene" id=2]
[ext_resource path="res://entities/components/CEOKilled.tscn" type="PackedScene" id=3]

[sub_resource type="Shader" id=1]

code = "shader_type canvas_item;

uniform float shader_on;

void fragment() {
	COLOR.rgb = texture(TEXTURE, UV).rgb + shader_on * vec3(1.0);
	COLOR.a = texture(TEXTURE, UV).a;
}"

[sub_resource type="ShaderMaterial" id=2]

resource_local_to_scene = true
render_priority = 0
shader = SubResource( 1 )
shader_param/shader_on = 0.0
_sections_unfolded = [ "Resource", "shader_param" ]

[sub_resource type="CircleShape2D" id=3]

custom_solver_bias = 0.0
radius = 85.5584

[node name="CEO" index="0" instance=ExtResource( 1 )]

max_movement_mult = 0.6
max_hp = 1000
def = 2

[node name="Sprite" parent="." index="0"]

editor/display_folded = true
material = SubResource( 2 )

[node name="CEOSprite" parent="Sprite" index="1" instance=ExtResource( 2 )]

[node name="AI" parent="." index="1"]

max_shooting_range = 1200.0
seek_range = 1200.0
stop_range = 700.0
flee_range = 600.0

[node name="Shooter" parent="." index="2"]

fire_rate = 0.3
spread = 10.0
burst_rate = 0.6
burst_quantity = 10

[node name="CollisionShape2D" parent="." index="3"]

shape = SubResource( 3 )

[node name="CollisionPolygon2D" parent="HitboxArea" index="0"]

polygon = PoolVector2Array( -62.8881, 27.1019, -10.4558, 52.9208, 62.2344, 47.3598, 89.245, 9.62444, 74.5481, -48.3689, 46.3459, -104.376, 3.84393, -122.648, -35.4803, -106.759, -68.4491, -44.7939 )

[node name="CEOKilled" parent="." index="6" instance=ExtResource( 3 )]

[node name="GotHit" parent="." index="7"]

pitch_scale = 1.0
mix_target = 0


