[gd_scene load_steps=12 format=2]

[ext_resource path="res://rooms/Tiles.tscn" type="PackedScene" id=1]
[ext_resource path="res://rooms/objects/Door.tscn" type="PackedScene" id=2]
[ext_resource path="res://rooms/events/Spawn.tscn" type="PackedScene" id=3]
[ext_resource path="res://entities/characters/enemy/tank/Tank.tscn" type="PackedScene" id=4]
[ext_resource path="res://entities/characters/enemy/cop/Cop.tscn" type="PackedScene" id=5]
[ext_resource path="res://entities/characters/enemy/cop/JetCop.tscn" type="PackedScene" id=6]
[ext_resource path="res://rooms/events/EndCheck.tscn" type="PackedScene" id=7]
[ext_resource path="res://rooms/objects/GreenAltar.tscn" type="PackedScene" id=8]
[ext_resource path="res://entities/components/parts/Plug.tscn" type="PackedScene" id=9]
[ext_resource path="res://rooms/events/PlayerSpawn.tscn" type="PackedScene" id=10]
[ext_resource path="res://rooms/Transition.tscn" type="PackedScene" id=11]

[node name="Room" type="Node2D" groups=[
"Room",
]]

_sections_unfolded = [ "Z Index" ]

[node name="Tiles" parent="." index="0" instance=ExtResource( 1 )]

tile_data = PoolIntArray( 0, 2, 131072, 1, 2, 65539, 2, 2, 65539, 3, 2, 65539, 4, 2, 65539, 5, 2, 65539, 6, 2, 65539, 7, 2, 65539, 8, 2, 65539, 9, 2, 65539, 10, 2, 65539, 11, 2, 65539, 12, 2, 65539, 13, 2, 65539, 14, 2, 65539, 15, 2, 65539, 16, 2, 65539, 17, 2, 65539, 18, 2, 65539, 19, 2, 65539, 20, 2, 65539, 21, 2, 65539, 22, 2, 65539, 23, 2, 65539, 24, 2, 65539, 25, 2, 65539, 26, 2, 65539, 27, 2, 65539, 28, 2, 65539, 29, 2, 131073, 65536, 2, 3, 65537, 2, 131074, 65538, 2, 2, 65539, 2, 2, 65540, 2, 2, 65541, 2, 2, 65542, 2, 2, 65543, 2, 2, 65544, 2, 2, 65545, 2, 2, 65546, 2, 2, 65547, 2, 2, 65548, 2, 2, 65549, 2, 2, 65550, 2, 2, 65551, 2, 2, 65552, 2, 2, 65553, 2, 2, 65554, 2, 2, 65555, 2, 2, 65556, 2, 2, 65557, 2, 2, 65558, 2, 2, 65559, 2, 2, 65560, 2, 2, 65561, 2, 2, 65562, 2, 2, 65563, 2, 2, 65564, 2, 131075, 65565, 2, 65538, 131072, 2, 3, 131073, 2, 65538, 131074, 1, 0, 131075, 1, 0, 131076, 1, 0, 131077, 1, 0, 131078, 1, 0, 131079, 1, 0, 131080, 1, 0, 131081, 1, 0, 131082, 1, 0, 131083, 1, 0, 131084, 1, 0, 131085, 1, 0, 131086, 1, 0, 131087, 1, 0, 131088, 1, 0, 131089, 1, 0, 131090, 1, 0, 131091, 1, 0, 131092, 1, 0, 131093, 1, 0, 131094, 1, 0, 131095, 1, 0, 131096, 1, 0, 131097, 1, 0, 131098, 1, 0, 131099, 1, 0, 131100, 2, 3, 131101, 2, 65538, 196608, 2, 3, 196609, 2, 65538, 196610, 1, 0, 196611, 1, 0, 196612, 1, 0, 196613, 1, 0, 196614, 1, 0, 196615, 1, 0, 196616, 1, 0, 196617, 1, 0, 196618, 1, 0, 196619, 1, 0, 196620, 1, 0, 196621, 1, 0, 196622, 1, 0, 196623, 1, 0, 196624, 1, 0, 196625, 1, 0, 196626, 1, 0, 196627, 1, 0, 196628, 1, 0, 196629, 1, 0, 196630, 1, 0, 196631, 1, 0, 196632, 1, 0, 196633, 1, 0, 196634, 1, 0, 196635, 1, 0, 196636, 2, 3, 196637, 2, 65538, 262144, 2, 3, 262145, 2, 65538, 262146, 1, 0, 262147, 1, 0, 262148, 1, 0, 262149, 1, 0, 262150, 1, 0, 262151, 1, 0, 262152, 1, 0, 262153, 1, 0, 262154, 1, 0, 262155, 1, 0, 262156, 1, 0, 262157, 1, 0, 262158, 1, 0, 262159, 1, 0, 262160, 1, 0, 262161, 1, 0, 262162, 1, 0, 262163, 1, 0, 262164, 1, 0, 262165, 1, 0, 262166, 1, 0, 262167, 1, 0, 262168, 1, 0, 262169, 1, 0, 262170, 1, 0, 262171, 1, 0, 262172, 2, 3, 262173, 2, 65538, 327680, 2, 3, 327681, 2, 65538, 327682, 1, 0, 327683, 1, 0, 327684, 1, 0, 327685, 1, 0, 327686, 1, 0, 327687, 1, 0, 327688, 1, 0, 327689, 1, 0, 327690, 1, 0, 327691, 2, 131072, 327692, 2, 65539, 327693, 2, 65539, 327694, 2, 65539, 327695, 2, 65539, 327696, 2, 65539, 327697, 2, 65539, 327698, 2, 131073, 327699, 1, 0, 327700, 1, 0, 327701, 1, 0, 327702, 1, 0, 327703, 1, 0, 327704, 1, 0, 327705, 1, 0, 327706, 1, 0, 327707, 1, 0, 327708, 2, 3, 327709, 2, 65538, 393216, 2, 3, 393217, 2, 65538, 393218, 1, 0, 393219, 1, 0, 393220, 1, 0, 393221, 1, 0, 393222, 1, 0, 393223, 1, 0, 393224, 1, 0, 393225, 1, 0, 393226, 1, 0, 393227, 2, 3, 393228, 2, 0, 393229, 2, 0, 393230, 2, 0, 393231, 2, 0, 393232, 2, 0, 393233, 2, 0, 393234, 2, 65538, 393235, 1, 0, 393236, 1, 0, 393237, 1, 0, 393238, 1, 0, 393239, 1, 0, 393240, 1, 0, 393241, 1, 0, 393242, 1, 0, 393243, 1, 0, 393244, 2, 3, 393245, 2, 65538, 458752, 2, 3, 458753, 2, 65538, 458754, 1, 0, 458755, 1, 0, 458756, 1, 0, 458757, 1, 0, 458758, 1, 0, 458759, 2, 131072, 458760, 2, 65539, 458761, 2, 65539, 458762, 2, 65539, 458763, 2, 196611, 458764, 2, 0, 458765, 2, 0, 458766, 2, 0, 458767, 2, 0, 458768, 2, 0, 458769, 2, 0, 458770, 2, 196610, 458771, 2, 65539, 458772, 2, 65539, 458773, 2, 65539, 458774, 2, 131073, 458775, 1, 0, 458776, 1, 0, 458777, 1, 0, 458778, 1, 0, 458779, 1, 0, 458780, 2, 3, 458781, 2, 65538, 524288, 2, 3, 524289, 2, 65538, 524290, 1, 0, 524291, 1, 0, 524292, 1, 0, 524293, 1, 0, 524294, 1, 0, 524295, 2, 3, 524296, 2, 0, 524297, 2, 0, 524298, 2, 0, 524299, 2, 0, 524300, 2, 0, 524301, 2, 0, 524302, 2, 0, 524303, 2, 0, 524304, 2, 0, 524305, 2, 0, 524306, 2, 0, 524307, 2, 0, 524308, 2, 0, 524309, 2, 0, 524310, 2, 65538, 524311, 1, 0, 524312, 1, 0, 524313, 1, 0, 524314, 1, 0, 524315, 1, 0, 524316, 2, 3, 524317, 2, 65538, 589824, 2, 3, 589825, 2, 65538, 589826, 1, 0, 589827, 1, 0, 589828, 1, 0, 589829, 1, 0, 589830, 1, 0, 589831, 2, 196608, 589832, 2, 2, 589833, 2, 2, 589834, 2, 2, 589835, 2, 131075, 589836, 2, 0, 589837, 2, 0, 589838, 2, 0, 589839, 2, 0, 589840, 2, 0, 589841, 2, 0, 589842, 2, 131074, 589843, 2, 2, 589844, 2, 2, 589845, 2, 2, 589846, 2, 196609, 589847, 1, 0, 589848, 1, 0, 589849, 1, 0, 589850, 1, 0, 589851, 1, 0, 589852, 2, 3, 589853, 2, 65538, 655360, 2, 3, 655361, 2, 65538, 655362, 1, 0, 655363, 1, 0, 655364, 1, 0, 655365, 1, 0, 655366, 1, 0, 655367, 1, 0, 655368, 1, 0, 655369, 1, 0, 655370, 1, 0, 655371, 2, 3, 655372, 2, 0, 655373, 2, 0, 655374, 2, 0, 655375, 2, 0, 655376, 2, 0, 655377, 2, 0, 655378, 2, 65538, 655379, 1, 0, 655380, 1, 0, 655381, 1, 0, 655382, 1, 0, 655383, 1, 0, 655384, 1, 0, 655385, 1, 0, 655386, 1, 0, 655387, 1, 0, 655388, 2, 3, 655389, 2, 65538, 720896, 2, 3, 720897, 2, 65538, 720898, 1, 0, 720899, 1, 0, 720900, 1, 0, 720901, 1, 0, 720902, 1, 0, 720903, 1, 0, 720904, 1, 0, 720905, 1, 0, 720906, 1, 0, 720907, 2, 196608, 720908, 2, 2, 720909, 2, 2, 720910, 2, 2, 720911, 2, 2, 720912, 2, 2, 720913, 2, 2, 720914, 2, 196609, 720915, 1, 0, 720916, 1, 0, 720917, 1, 0, 720918, 1, 0, 720919, 1, 0, 720920, 1, 0, 720921, 1, 0, 720922, 1, 0, 720923, 1, 0, 720924, 2, 3, 720925, 2, 65538, 786432, 2, 3, 786433, 2, 65538, 786434, 1, 0, 786435, 1, 0, 786436, 1, 0, 786437, 1, 0, 786438, 1, 0, 786439, 1, 0, 786440, 1, 0, 786441, 1, 0, 786442, 1, 0, 786443, 1, 0, 786444, 1, 0, 786445, 1, 0, 786446, 1, 0, 786447, 1, 0, 786448, 1, 0, 786449, 1, 0, 786450, 1, 0, 786451, 1, 0, 786452, 1, 0, 786453, 1, 0, 786454, 1, 0, 786455, 1, 0, 786456, 1, 0, 786457, 1, 0, 786458, 1, 0, 786459, 1, 0, 786460, 2, 3, 786461, 2, 65538, 851968, 2, 3, 851969, 2, 65538, 851970, 1, 0, 851971, 1, 0, 851972, 1, 0, 851973, 1, 0, 851974, 1, 0, 851975, 1, 0, 851976, 1, 0, 851977, 1, 0, 851978, 1, 0, 851979, 1, 0, 851980, 1, 0, 851981, 1, 0, 851982, 1, 0, 851983, 1, 0, 851984, 1, 0, 851985, 1, 0, 851986, 1, 0, 851987, 1, 0, 851988, 1, 0, 851989, 1, 0, 851990, 1, 0, 851991, 1, 0, 851992, 1, 0, 851993, 1, 0, 851994, 1, 0, 851995, 1, 0, 851996, 2, 3, 851997, 2, 65538, 917504, 2, 3, 917505, 2, 65538, 917506, 1, 0, 917507, 1, 0, 917508, 1, 0, 917509, 1, 0, 917510, 1, 0, 917511, 1, 0, 917512, 1, 0, 917513, 1, 0, 917514, 1, 0, 917515, 1, 0, 917516, 1, 0, 917517, 1, 0, 917518, 1, 0, 917519, 1, 0, 917520, 1, 0, 917521, 1, 0, 917522, 1, 0, 917523, 1, 0, 917524, 1, 0, 917525, 1, 0, 917526, 1, 0, 917527, 1, 0, 917528, 1, 0, 917529, 1, 0, 917530, 1, 0, 917531, 1, 0, 917532, 2, 3, 917533, 2, 65538, 983040, 2, 3, 983041, 2, 196610, 983042, 2, 65539, 983043, 2, 65539, 983044, 2, 65539, 983045, 2, 65539, 983046, 2, 65539, 983047, 2, 65539, 983048, 2, 65539, 983049, 2, 65539, 983050, 2, 65539, 983051, 2, 65539, 983052, 2, 65539, 983053, 2, 65539, 983054, 2, 65539, 983055, 2, 65539, 983056, 2, 65539, 983057, 2, 65539, 983058, 2, 65539, 983059, 2, 65539, 983060, 2, 65539, 983061, 2, 65539, 983062, 2, 65539, 983063, 2, 65539, 983064, 2, 65539, 983065, 2, 65539, 983066, 2, 65539, 983067, 2, 65539, 983068, 2, 196611, 983069, 2, 65538, 1048576, 2, 196608, 1048577, 2, 2, 1048578, 2, 2, 1048579, 2, 2, 1048580, 2, 2, 1048581, 2, 2, 1048582, 2, 2, 1048583, 2, 2, 1048584, 2, 2, 1048585, 2, 2, 1048586, 2, 2, 1048587, 2, 2, 1048588, 2, 2, 1048589, 2, 2, 1048590, 2, 2, 1048591, 2, 2, 1048592, 2, 2, 1048593, 2, 2, 1048594, 2, 2, 1048595, 2, 2, 1048596, 2, 2, 1048597, 2, 2, 1048598, 2, 2, 1048599, 2, 2, 1048600, 2, 2, 1048601, 2, 2, 1048602, 2, 2, 1048603, 2, 2, 1048604, 2, 2, 1048605, 2, 196609 )

[node name="Entities" type="YSort" parent="." index="1"]

sort_enabled = true

[node name="InitDoor" parent="Entities" index="0" instance=ExtResource( 2 )]

position = Vector2( 980, 997.294 )
rotation = 3.14159
z_index = -1
_sections_unfolded = [ "Transform", "Z Index" ]
locked = true

[node name="Spawn3" parent="Entities" index="1" instance=ExtResource( 3 )]

position = Vector2( 1538.32, 802.679 )
delay = 12.0
entity_scn = ExtResource( 4 )

[node name="Spawn" parent="Entities" index="2" instance=ExtResource( 3 )]

position = Vector2( 248.339, 614.003 )
delay = 2.0
period = 2.0
times = 7
entity_scn = ExtResource( 5 )

[node name="Spawn2" parent="Entities" index="3" instance=ExtResource( 3 )]

position = Vector2( 815.544, 221.589 )
delay = 5.0
period = 1.5
times = 10
entity_scn = ExtResource( 6 )

[node name="EndCheck" parent="Entities" index="4" instance=ExtResource( 7 )]

position = Vector2( 956.806, 189.041 )
altar_scene = ExtResource( 8 )
new_part_scene = ExtResource( 9 )

[node name="PlayerSpawn" parent="Entities" index="5" instance=ExtResource( 10 )]

position = Vector2( 980, 880 )

[node name="PlayerSpawn2" parent="Entities" index="6" instance=ExtResource( 10 )]

position = Vector2( 920, 890 )

[node name="PlayerSpawn3" parent="Entities" index="7" instance=ExtResource( 10 )]

position = Vector2( 1050, 900 )
player_id = 2

[node name="PlayerSpawn4" parent="Entities" index="8" instance=ExtResource( 10 )]

position = Vector2( 1010, 840 )
player_id = 3

[node name="Door2" parent="Entities" index="9" instance=ExtResource( 2 )]

position = Vector2( 90.5685, 552.497 )
rotation = -1.5708
z_index = -2
_sections_unfolded = [ "Transform", "Z Index" ]
target_room = "res://rooms/game/Room4C.tscn"

[node name="Door3" parent="Entities" index="10" instance=ExtResource( 2 )]

position = Vector2( 1829.36, 557.735 )
rotation = 1.5708
z_index = -3
_sections_unfolded = [ "Transform", "Z Index" ]
target_room = "res://rooms/game/Room3C.tscn"

[node name="Transition" parent="." index="2" instance=ExtResource( 11 )]


