[gd_scene load_steps=13 format=2]

[ext_resource path="res://rooms/Tiles.tscn" type="PackedScene" id=1]
[ext_resource path="res://rooms/objects/Door.tscn" type="PackedScene" id=2]
[ext_resource path="res://rooms/events/EndCheck.tscn" type="PackedScene" id=3]
[ext_resource path="res://rooms/objects/RedAltar.tscn" type="PackedScene" id=4]
[ext_resource path="res://entities/components/parts/IronBoots.tscn" type="PackedScene" id=5]
[ext_resource path="res://rooms/events/PlayerSpawn.tscn" type="PackedScene" id=6]
[ext_resource path="res://rooms/events/Spawn.tscn" type="PackedScene" id=7]
[ext_resource path="res://entities/characters/enemy/tank/Tank.tscn" type="PackedScene" id=8]
[ext_resource path="res://entities/characters/enemy/cop/Cop.tscn" type="PackedScene" id=9]
[ext_resource path="res://entities/characters/enemy/cop/JetCop.tscn" type="PackedScene" id=10]
[ext_resource path="res://entities/characters/enemy/torpedo/Torpedo.tscn" type="PackedScene" id=11]
[ext_resource path="res://rooms/Transition.tscn" type="PackedScene" id=12]

[node name="Room" type="Node2D" groups=[
"Room",
]]

[node name="Tiles" parent="." index="0" instance=ExtResource( 1 )]

tile_data = PoolIntArray( -1, 2, 131072, -65536, 2, 65539, -65535, 2, 65539, -65534, 2, 65539, -65533, 2, 65539, -65532, 2, 65539, -65531, 2, 65539, -65530, 2, 65539, -65529, 2, 65539, -65528, 2, 65539, -65527, 2, 65539, -65526, 2, 65539, -65525, 2, 65539, -65524, 2, 65539, -65523, 2, 65539, -65522, 2, 65539, -65521, 2, 65539, -65520, 2, 65539, -65519, 2, 65539, -65518, 2, 65539, -65517, 2, 65539, -65516, 2, 65539, -65515, 2, 65539, -65514, 2, 65539, -65513, 2, 65539, -65512, 2, 65539, -65511, 2, 65539, -65510, 2, 65539, -65509, 2, 65539, -65508, 2, 65539, -65507, 2, 65539, -65506, 2, 131073, 65535, 2, 3, 0, 2, 0, 1, 2, 0, 2, 2, 0, 3, 2, 0, 4, 2, 0, 5, 2, 0, 6, 2, 0, 7, 2, 0, 8, 2, 0, 9, 2, 0, 10, 2, 0, 11, 2, 0, 12, 2, 0, 13, 2, 0, 14, 2, 0, 15, 2, 0, 16, 2, 0, 17, 2, 0, 18, 2, 0, 19, 2, 0, 20, 2, 0, 21, 2, 0, 22, 2, 0, 23, 2, 0, 24, 2, 0, 25, 2, 0, 26, 2, 0, 27, 2, 0, 28, 2, 0, 29, 2, 0, 30, 2, 65538, 131071, 2, 3, 65536, 2, 0, 65537, 2, 131074, 65538, 2, 2, 65539, 2, 2, 65540, 2, 2, 65541, 2, 2, 65542, 2, 131075, 65543, 2, 0, 65544, 2, 0, 65545, 2, 0, 65546, 2, 0, 65547, 2, 0, 65548, 2, 0, 65549, 2, 0, 65550, 2, 0, 65551, 2, 131074, 65552, 2, 2, 65553, 2, 2, 65554, 2, 2, 65555, 2, 2, 65556, 2, 2, 65557, 2, 2, 65558, 2, 2, 65559, 2, 2, 65560, 2, 2, 65561, 2, 2, 65562, 2, 2, 65563, 2, 2, 65564, 2, 131075, 65565, 2, 0, 65566, 2, 65538, 196607, 2, 3, 131072, 2, 0, 131073, 2, 65538, 131074, 1, 0, 131075, 1, 0, 131076, 1, 0, 131077, 1, 0, 131078, 2, 3, 131079, 2, 0, 131080, 2, 0, 131081, 2, 0, 131082, 2, 0, 131083, 2, 0, 131084, 2, 0, 131085, 2, 0, 131086, 2, 0, 131087, 2, 65538, 131088, 1, 0, 131089, 1, 0, 131090, 1, 0, 131091, 1, 0, 131092, 1, 0, 131093, 1, 0, 131094, 1, 0, 131095, 1, 0, 131096, 1, 0, 131097, 1, 0, 131098, 1, 0, 131099, 1, 0, 131100, 2, 3, 131101, 2, 0, 131102, 2, 65538, 262143, 2, 3, 196608, 2, 0, 196609, 2, 65538, 196610, 1, 0, 196611, 1, 0, 196612, 1, 0, 196613, 1, 0, 196614, 2, 3, 196615, 2, 0, 196616, 2, 0, 196617, 2, 0, 196618, 2, 0, 196619, 2, 0, 196620, 2, 0, 196621, 2, 0, 196622, 2, 0, 196623, 2, 65538, 196624, 1, 0, 196625, 1, 0, 196626, 1, 0, 196627, 1, 0, 196628, 1, 0, 196629, 1, 0, 196630, 1, 0, 196631, 1, 0, 196632, 1, 0, 196633, 1, 0, 196634, 1, 0, 196635, 1, 0, 196636, 2, 3, 196637, 2, 0, 196638, 2, 65538, 327679, 2, 3, 262144, 2, 0, 262145, 2, 65538, 262146, 1, 0, 262147, 1, 0, 262148, 1, 0, 262149, 1, 0, 262150, 2, 196608, 262151, 2, 2, 262152, 2, 2, 262153, 2, 2, 262154, 2, 2, 262155, 2, 131075, 262156, 2, 0, 262157, 2, 0, 262158, 2, 0, 262159, 2, 65538, 262160, 1, 0, 262161, 1, 0, 262162, 1, 0, 262163, 1, 0, 262164, 2, 131072, 262165, 2, 65539, 262166, 2, 65539, 262167, 2, 131073, 262168, 1, 0, 262169, 1, 0, 262170, 1, 0, 262171, 1, 0, 262172, 2, 3, 262173, 2, 0, 262174, 2, 65538, 393215, 2, 3, 327680, 2, 0, 327681, 2, 65538, 327682, 1, 0, 327683, 1, 0, 327684, 1, 0, 327685, 1, 0, 327686, 1, 0, 327687, 1, 0, 327688, 1, 0, 327689, 1, 0, 327690, 1, 0, 327691, 2, 196608, 327692, 2, 2, 327693, 2, 2, 327694, 2, 2, 327695, 2, 196609, 327696, 1, 0, 327697, 1, 0, 327698, 1, 0, 327699, 1, 0, 327700, 2, 3, 327701, 2, 0, 327702, 2, 0, 327703, 2, 65538, 327704, 1, 0, 327705, 1, 0, 327706, 1, 0, 327707, 1, 0, 327708, 2, 3, 327709, 2, 0, 327710, 2, 65538, 458751, 2, 3, 393216, 2, 0, 393217, 2, 65538, 393218, 1, 0, 393219, 1, 0, 393220, 1, 0, 393221, 1, 0, 393222, 1, 0, 393223, 1, 0, 393224, 1, 0, 393225, 1, 0, 393226, 1, 0, 393227, 1, 0, 393228, 1, 0, 393229, 1, 0, 393230, 1, 0, 393231, 1, 0, 393232, 1, 0, 393233, 1, 0, 393234, 1, 0, 393235, 1, 0, 393236, 2, 196608, 393237, 2, 131075, 393238, 2, 0, 393239, 2, 196610, 393240, 2, 131073, 393241, 1, 0, 393242, 1, 0, 393243, 1, 0, 393244, 2, 3, 393245, 2, 0, 393246, 2, 65538, 524287, 2, 3, 458752, 2, 0, 458753, 2, 65538, 458754, 1, 0, 458755, 1, 0, 458756, 1, 0, 458757, 1, 0, 458758, 1, 0, 458759, 1, 0, 458760, 1, 0, 458761, 1, 0, 458762, 1, 0, 458763, 1, 0, 458764, 1, 0, 458765, 1, 0, 458766, 1, 0, 458767, 1, 0, 458768, 1, 0, 458769, 1, 0, 458770, 1, 0, 458771, 1, 0, 458772, 1, 0, 458773, 2, 3, 458774, 2, 0, 458775, 2, 0, 458776, 2, 65538, 458777, 1, 0, 458778, 1, 0, 458779, 1, 0, 458780, 2, 3, 458781, 2, 0, 458782, 2, 65538, 589823, 2, 3, 524288, 2, 0, 524289, 2, 65538, 524290, 1, 0, 524291, 1, 0, 524292, 1, 0, 524293, 1, 0, 524294, 1, 0, 524295, 1, 0, 524296, 1, 0, 524297, 1, 0, 524298, 1, 0, 524299, 1, 0, 524300, 1, 0, 524301, 1, 0, 524302, 1, 0, 524303, 1, 0, 524304, 1, 0, 524305, 1, 0, 524306, 1, 0, 524307, 1, 0, 524308, 1, 0, 524309, 2, 3, 524310, 2, 0, 524311, 2, 0, 524312, 2, 65538, 524313, 1, 0, 524314, 1, 0, 524315, 1, 0, 524316, 2, 3, 524317, 2, 0, 524318, 2, 65538, 655359, 2, 3, 589824, 2, 0, 589825, 2, 65538, 589826, 1, 0, 589827, 1, 0, 589828, 1, 0, 589829, 1, 0, 589830, 1, 0, 589831, 1, 0, 589832, 1, 0, 589833, 1, 0, 589834, 1, 0, 589835, 1, 0, 589836, 1, 0, 589837, 1, 0, 589838, 1, 0, 589839, 1, 0, 589840, 1, 0, 589841, 1, 0, 589842, 1, 0, 589843, 1, 0, 589844, 1, 0, 589845, 2, 3, 589846, 2, 0, 589847, 2, 0, 589848, 2, 65538, 589849, 1, 0, 589850, 1, 0, 589851, 1, 0, 589852, 2, 3, 589853, 2, 0, 589854, 2, 65538, 720895, 2, 3, 655360, 2, 0, 655361, 2, 65538, 655362, 1, 0, 655363, 1, 0, 655364, 1, 0, 655365, 1, 0, 655366, 1, 0, 655367, 1, 0, 655368, 1, 0, 655369, 1, 0, 655370, 1, 0, 655371, 1, 0, 655372, 1, 0, 655373, 1, 0, 655374, 1, 0, 655375, 1, 0, 655376, 1, 0, 655377, 1, 0, 655378, 1, 0, 655379, 1, 0, 655380, 2, 131072, 655381, 2, 196611, 655382, 2, 0, 655383, 2, 131074, 655384, 2, 196609, 655385, 1, 0, 655386, 1, 0, 655387, 1, 0, 655388, 2, 3, 655389, 2, 0, 655390, 2, 65538, 786431, 2, 3, 720896, 2, 0, 720897, 2, 65538, 720898, 1, 0, 720899, 1, 0, 720900, 1, 0, 720901, 1, 0, 720902, 1, 0, 720903, 1, 0, 720904, 1, 0, 720905, 1, 0, 720906, 1, 0, 720907, 2, 131072, 720908, 2, 65539, 720909, 2, 65539, 720910, 2, 65539, 720911, 2, 131073, 720912, 1, 0, 720913, 1, 0, 720914, 1, 0, 720915, 1, 0, 720916, 2, 3, 720917, 2, 0, 720918, 2, 0, 720919, 2, 65538, 720920, 1, 0, 720921, 1, 0, 720922, 1, 0, 720923, 1, 0, 720924, 2, 3, 720925, 2, 0, 720926, 2, 65538, 851967, 2, 3, 786432, 2, 0, 786433, 2, 65538, 786434, 1, 0, 786435, 1, 0, 786436, 1, 0, 786437, 1, 0, 786438, 2, 131072, 786439, 2, 65539, 786440, 2, 65539, 786441, 2, 65539, 786442, 2, 65539, 786443, 2, 196611, 786444, 2, 0, 786445, 2, 0, 786446, 2, 0, 786447, 2, 65538, 786448, 1, 0, 786449, 1, 0, 786450, 1, 0, 786451, 1, 0, 786452, 2, 196608, 786453, 2, 2, 786454, 2, 2, 786455, 2, 196609, 786456, 1, 0, 786457, 1, 0, 786458, 1, 0, 786459, 1, 0, 786460, 2, 3, 786461, 2, 0, 786462, 2, 65538, 917503, 2, 3, 851968, 2, 0, 851969, 2, 65538, 851970, 1, 0, 851971, 1, 0, 851972, 1, 0, 851973, 1, 0, 851974, 2, 3, 851975, 2, 0, 851976, 2, 0, 851977, 2, 0, 851978, 2, 0, 851979, 2, 0, 851980, 2, 0, 851981, 2, 0, 851982, 2, 0, 851983, 2, 65538, 851984, 1, 0, 851985, 1, 0, 851986, 1, 0, 851987, 1, 0, 851988, 1, 0, 851989, 1, 0, 851990, 1, 0, 851991, 1, 0, 851992, 1, 0, 851993, 1, 0, 851994, 1, 0, 851995, 1, 0, 851996, 2, 3, 851997, 2, 0, 851998, 2, 65538, 983039, 2, 3, 917504, 2, 0, 917505, 2, 65538, 917506, 1, 0, 917507, 1, 0, 917508, 1, 0, 917509, 1, 0, 917510, 2, 3, 917511, 2, 0, 917512, 2, 0, 917513, 2, 0, 917514, 2, 0, 917515, 2, 0, 917516, 2, 0, 917517, 2, 0, 917518, 2, 0, 917519, 2, 65538, 917520, 1, 0, 917521, 1, 0, 917522, 1, 0, 917523, 1, 0, 917524, 1, 0, 917525, 1, 0, 917526, 1, 0, 917527, 1, 0, 917528, 1, 0, 917529, 1, 0, 917530, 1, 0, 917531, 1, 0, 917532, 2, 3, 917533, 2, 0, 917534, 2, 65538, 1048575, 2, 3, 983040, 2, 0, 983041, 2, 196610, 983042, 2, 65539, 983043, 2, 65539, 983044, 2, 65539, 983045, 2, 65539, 983046, 2, 196611, 983047, 2, 0, 983048, 2, 0, 983049, 2, 0, 983050, 2, 0, 983051, 2, 0, 983052, 2, 0, 983053, 2, 0, 983054, 2, 0, 983055, 2, 196610, 983056, 2, 65539, 983057, 2, 65539, 983058, 2, 65539, 983059, 2, 65539, 983060, 2, 65539, 983061, 2, 65539, 983062, 2, 65539, 983063, 2, 65539, 983064, 2, 65539, 983065, 2, 65539, 983066, 2, 65539, 983067, 2, 65539, 983068, 2, 196611, 983069, 2, 0, 983070, 2, 65538, 1114111, 2, 3, 1048576, 2, 0, 1048577, 2, 0, 1048578, 2, 0, 1048579, 2, 0, 1048580, 2, 0, 1048581, 2, 0, 1048582, 2, 0, 1048583, 2, 0, 1048584, 2, 0, 1048585, 2, 0, 1048586, 2, 0, 1048587, 2, 0, 1048588, 2, 0, 1048589, 2, 0, 1048590, 2, 0, 1048591, 2, 0, 1048592, 2, 0, 1048593, 2, 0, 1048594, 2, 0, 1048595, 2, 0, 1048596, 2, 0, 1048597, 2, 0, 1048598, 2, 0, 1048599, 2, 0, 1048600, 2, 0, 1048601, 2, 0, 1048602, 2, 0, 1048603, 2, 0, 1048604, 2, 0, 1048605, 2, 0, 1048606, 2, 65538, 1179647, 2, 196608, 1114112, 2, 2, 1114113, 2, 2, 1114114, 2, 2, 1114115, 2, 2, 1114116, 2, 2, 1114117, 2, 2, 1114118, 2, 2, 1114119, 2, 2, 1114120, 2, 2, 1114121, 2, 2, 1114122, 2, 2, 1114123, 2, 2, 1114124, 2, 2, 1114125, 2, 2, 1114126, 2, 2, 1114127, 2, 2, 1114128, 2, 2, 1114129, 2, 2, 1114130, 2, 2, 1114131, 2, 2, 1114132, 2, 2, 1114133, 2, 2, 1114134, 2, 2, 1114135, 2, 2, 1114136, 2, 2, 1114137, 2, 2, 1114138, 2, 2, 1114139, 2, 2, 1114140, 2, 2, 1114141, 2, 2, 1114142, 2, 196609 )

[node name="Entities" type="YSort" parent="." index="1"]

sort_enabled = true

[node name="InitDoor" parent="Entities" index="0" instance=ExtResource( 2 )]

position = Vector2( 1828, 543 )
rotation = 1.5708
z_index = -1
_sections_unfolded = [ "Transform", "Z Index" ]
locked = true

[node name="EndCheck" parent="Entities" index="1" instance=ExtResource( 3 )]

position = Vector2( 900, 560 )
altar_scene = ExtResource( 4 )
new_part_scene = ExtResource( 5 )

[node name="PlayerSpawn" parent="Entities" index="2" instance=ExtResource( 6 )]

position = Vector2( 1732.65, 479.063 )

[node name="PlayerSpawn2" parent="Entities" index="3" instance=ExtResource( 6 )]

position = Vector2( 1686.21, 394.808 )

[node name="PlayerSpawn3" parent="Entities" index="4" instance=ExtResource( 6 )]

position = Vector2( 1719.39, 651.552 )
player_id = 2

[node name="PlayerSpawn4" parent="Entities" index="5" instance=ExtResource( 6 )]

position = Vector2( 1657.69, 719.221 )
player_id = 3

[node name="Door" parent="Entities" index="6" instance=ExtResource( 2 )]

position = Vector2( 1182.13, 90.1108 )
z_index = -2
_sections_unfolded = [ "Transform", "Z Index" ]
target_room = "res://rooms/game/BossRoom.tscn"

[node name="Spawn" parent="Entities" index="7" instance=ExtResource( 7 )]

position = Vector2( 680.425, 560.944 )
delay = 2.0
period = 20.0
times = 2
entity_scn = ExtResource( 8 )

[node name="Spawn4" parent="Entities" index="8" instance=ExtResource( 7 )]

position = Vector2( 1392.78, 187.643 )
delay = 1.0
period = 2.0
times = 3
entity_scn = ExtResource( 9 )

[node name="Spawn2" parent="Entities" index="9" instance=ExtResource( 7 )]

position = Vector2( 258.54, 838.482 )
delay = 4.0
times = 20
entity_scn = ExtResource( 10 )

[node name="Spawn3" parent="Entities" index="10" instance=ExtResource( 7 )]

position = Vector2( 253.735, 239.401 )
delay = 7.0
times = 20
entity_scn = ExtResource( 11 )

[node name="Transition" parent="." index="2" instance=ExtResource( 12 )]


