[gd_scene load_steps=11 format=2]

[ext_resource path="res://rooms/Tiles.tscn" type="PackedScene" id=1]
[ext_resource path="res://rooms/objects/Door.tscn" type="PackedScene" id=2]
[ext_resource path="res://rooms/events/EndCheck.tscn" type="PackedScene" id=3]
[ext_resource path="res://rooms/objects/GreenAltar.tscn" type="PackedScene" id=4]
[ext_resource path="res://entities/components/parts/SonicBoots.tscn" type="PackedScene" id=5]
[ext_resource path="res://rooms/events/PlayerSpawn.tscn" type="PackedScene" id=6]
[ext_resource path="res://rooms/events/Spawn.tscn" type="PackedScene" id=7]
[ext_resource path="res://entities/characters/enemy/cop/JetCop.tscn" type="PackedScene" id=8]
[ext_resource path="res://entities/characters/enemy/cop/Cop.tscn" type="PackedScene" id=9]
[ext_resource path="res://rooms/Transition.tscn" type="PackedScene" id=10]

[node name="Room" type="Node2D" groups=[
"Room",
]]

_sections_unfolded = [ "Z Index" ]

[node name="Tiles" parent="." index="0" instance=ExtResource( 1 )]

tile_data = PoolIntArray( 0, 2, 131072, 1, 2, 65539, 2, 2, 65539, 3, 2, 65539, 4, 2, 65539, 5, 2, 65539, 6, 2, 65539, 7, 2, 65539, 8, 2, 65539, 9, 2, 65539, 10, 2, 65539, 11, 2, 65539, 12, 2, 65539, 13, 2, 65539, 14, 2, 65539, 15, 2, 65539, 16, 2, 65539, 17, 2, 65539, 18, 2, 65539, 19, 2, 65539, 20, 2, 65539, 21, 2, 65539, 22, 2, 65539, 23, 2, 65539, 24, 2, 65539, 25, 2, 65539, 26, 2, 65539, 27, 2, 65539, 28, 2, 65539, 29, 2, 131073, 65536, 2, 3, 65537, 2, 0, 65538, 2, 0, 65539, 2, 0, 65540, 2, 0, 65541, 2, 0, 65542, 2, 0, 65543, 2, 0, 65544, 2, 131074, 65545, 2, 2, 65546, 2, 2, 65547, 2, 2, 65548, 2, 2, 65549, 2, 2, 65550, 2, 2, 65551, 2, 2, 65552, 2, 2, 65553, 2, 2, 65554, 2, 131075, 65555, 2, 0, 65556, 2, 0, 65557, 2, 0, 65558, 2, 0, 65559, 2, 0, 65560, 2, 0, 65561, 2, 0, 65562, 2, 0, 65563, 2, 0, 65564, 2, 0, 65565, 2, 65538, 131072, 2, 3, 131073, 2, 0, 131074, 2, 0, 131075, 2, 0, 131076, 2, 0, 131077, 2, 0, 131078, 2, 0, 131079, 2, 0, 131080, 2, 65538, 131081, 1, 0, 131082, 1, 0, 131083, 1, 0, 131084, 1, 0, 131085, 1, 0, 131086, 1, 0, 131087, 1, 0, 131088, 1, 0, 131089, 1, 0, 131090, 2, 3, 131091, 2, 0, 131092, 2, 0, 131093, 2, 0, 131094, 2, 0, 131095, 2, 0, 131096, 2, 0, 131097, 2, 0, 131098, 2, 0, 131099, 2, 0, 131100, 2, 0, 131101, 2, 65538, 196608, 2, 3, 196609, 2, 0, 196610, 2, 0, 196611, 2, 0, 196612, 2, 0, 196613, 2, 0, 196614, 2, 0, 196615, 2, 0, 196616, 2, 65538, 196617, 1, 0, 196618, 1, 0, 196619, 1, 0, 196620, 1, 0, 196621, 1, 0, 196622, 1, 0, 196623, 1, 0, 196624, 1, 0, 196625, 1, 0, 196626, 2, 3, 196627, 2, 0, 196628, 2, 0, 196629, 2, 0, 196630, 2, 0, 196631, 2, 0, 196632, 2, 0, 196633, 2, 0, 196634, 2, 0, 196635, 2, 0, 196636, 2, 0, 196637, 2, 65538, 262144, 2, 3, 262145, 2, 0, 262146, 2, 0, 262147, 2, 0, 262148, 2, 0, 262149, 2, 0, 262150, 2, 0, 262151, 2, 0, 262152, 2, 65538, 262153, 1, 0, 262154, 1, 0, 262155, 1, 0, 262156, 1, 0, 262157, 1, 0, 262158, 1, 0, 262159, 1, 0, 262160, 1, 0, 262161, 1, 0, 262162, 2, 3, 262163, 2, 0, 262164, 2, 0, 262165, 2, 0, 262166, 2, 0, 262167, 2, 0, 262168, 2, 0, 262169, 2, 0, 262170, 2, 0, 262171, 2, 0, 262172, 2, 0, 262173, 2, 65538, 327680, 2, 3, 327681, 2, 0, 327682, 2, 0, 327683, 2, 0, 327684, 2, 131074, 327685, 2, 2, 327686, 2, 2, 327687, 2, 2, 327688, 2, 196609, 327689, 1, 0, 327690, 1, 0, 327691, 1, 0, 327692, 1, 0, 327693, 1, 0, 327694, 1, 0, 327695, 1, 0, 327696, 1, 0, 327697, 1, 0, 327698, 2, 3, 327699, 2, 0, 327700, 2, 0, 327701, 2, 0, 327702, 2, 0, 327703, 2, 0, 327704, 2, 131074, 327705, 2, 2, 327706, 2, 2, 327707, 2, 2, 327708, 2, 131075, 327709, 2, 65538, 393216, 2, 3, 393217, 2, 0, 393218, 2, 0, 393219, 2, 0, 393220, 2, 65538, 393221, 1, 0, 393222, 1, 0, 393223, 1, 0, 393224, 1, 0, 393225, 1, 0, 393226, 1, 0, 393227, 1, 0, 393228, 1, 0, 393229, 1, 0, 393230, 1, 0, 393231, 1, 0, 393232, 1, 0, 393233, 1, 0, 393234, 2, 196608, 393235, 2, 2, 393236, 2, 131075, 393237, 2, 0, 393238, 2, 0, 393239, 2, 0, 393240, 2, 65538, 393241, 1, 0, 393242, 1, 0, 393243, 1, 0, 393244, 2, 3, 393245, 2, 65538, 458752, 2, 3, 458753, 2, 0, 458754, 2, 0, 458755, 2, 0, 458756, 2, 65538, 458757, 1, 0, 458758, 1, 0, 458759, 1, 0, 458760, 1, 0, 458761, 1, 0, 458762, 1, 0, 458763, 1, 0, 458764, 1, 0, 458765, 1, 0, 458766, 1, 0, 458767, 1, 0, 458768, 1, 0, 458769, 1, 0, 458770, 1, 0, 458771, 1, 0, 458772, 2, 3, 458773, 2, 0, 458774, 2, 0, 458775, 2, 0, 458776, 2, 65538, 458777, 1, 0, 458778, 1, 0, 458779, 1, 0, 458780, 2, 3, 458781, 2, 65538, 524288, 2, 3, 524289, 2, 0, 524290, 2, 0, 524291, 2, 0, 524292, 2, 65538, 524293, 1, 0, 524294, 1, 0, 524295, 1, 0, 524296, 1, 0, 524297, 1, 0, 524298, 2, 131072, 524299, 2, 65539, 524300, 2, 65539, 524301, 2, 65539, 524302, 2, 131073, 524303, 1, 0, 524304, 1, 0, 524305, 1, 0, 524306, 1, 0, 524307, 1, 0, 524308, 2, 3, 524309, 2, 0, 524310, 2, 0, 524311, 2, 0, 524312, 2, 65538, 524313, 1, 0, 524314, 1, 0, 524315, 1, 0, 524316, 2, 3, 524317, 2, 65538, 589824, 2, 3, 589825, 2, 0, 589826, 2, 131074, 589827, 2, 2, 589828, 2, 196609, 589829, 1, 0, 589830, 1, 0, 589831, 1, 0, 589832, 1, 0, 589833, 1, 0, 589834, 2, 3, 589835, 2, 0, 589836, 2, 0, 589837, 2, 0, 589838, 2, 65538, 589839, 1, 0, 589840, 1, 0, 589841, 1, 0, 589842, 1, 0, 589843, 1, 0, 589844, 2, 3, 589845, 2, 0, 589846, 2, 0, 589847, 2, 0, 589848, 2, 65538, 589849, 1, 0, 589850, 1, 0, 589851, 1, 0, 589852, 2, 3, 589853, 2, 65538, 655360, 2, 3, 655361, 2, 0, 655362, 2, 65538, 655363, 1, 0, 655364, 1, 0, 655365, 1, 0, 655366, 1, 0, 655367, 1, 0, 655368, 1, 0, 655369, 1, 0, 655370, 2, 3, 655371, 2, 0, 655372, 2, 0, 655373, 2, 0, 655374, 2, 65538, 655375, 1, 0, 655376, 1, 0, 655377, 1, 0, 655378, 1, 0, 655379, 1, 0, 655380, 2, 3, 655381, 2, 0, 655382, 2, 0, 655383, 2, 0, 655384, 2, 65538, 655385, 1, 0, 655386, 1, 0, 655387, 1, 0, 655388, 2, 3, 655389, 2, 65538, 720896, 2, 3, 720897, 2, 0, 720898, 2, 65538, 720899, 1, 0, 720900, 1, 0, 720901, 1, 0, 720902, 1, 0, 720903, 2, 131072, 720904, 2, 65539, 720905, 2, 65539, 720906, 2, 196611, 720907, 2, 0, 720908, 2, 0, 720909, 2, 0, 720910, 2, 65538, 720911, 1, 0, 720912, 1, 0, 720913, 1, 0, 720914, 1, 0, 720915, 1, 0, 720916, 2, 196608, 720917, 2, 2, 720918, 2, 2, 720919, 2, 2, 720920, 2, 196609, 720921, 1, 0, 720922, 1, 0, 720923, 1, 0, 720924, 2, 3, 720925, 2, 65538, 786432, 2, 3, 786433, 2, 0, 786434, 2, 65538, 786435, 1, 0, 786436, 1, 0, 786437, 1, 0, 786438, 1, 0, 786439, 2, 3, 786440, 2, 0, 786441, 2, 0, 786442, 2, 0, 786443, 2, 0, 786444, 2, 0, 786445, 2, 0, 786446, 2, 65538, 786447, 1, 0, 786448, 1, 0, 786449, 1, 0, 786450, 1, 0, 786451, 1, 0, 786452, 1, 0, 786453, 1, 0, 786454, 1, 0, 786455, 1, 0, 786456, 1, 0, 786457, 1, 0, 786458, 1, 0, 786459, 1, 0, 786460, 2, 3, 786461, 2, 65538, 851968, 2, 3, 851969, 2, 0, 851970, 2, 65538, 851971, 1, 0, 851972, 1, 0, 851973, 1, 0, 851974, 1, 0, 851975, 2, 3, 851976, 2, 0, 851977, 2, 0, 851978, 2, 0, 851979, 2, 0, 851980, 2, 0, 851981, 2, 0, 851982, 2, 65538, 851983, 1, 0, 851984, 1, 0, 851985, 1, 0, 851986, 1, 0, 851987, 1, 0, 851988, 1, 0, 851989, 1, 0, 851990, 1, 0, 851991, 1, 0, 851992, 1, 0, 851993, 1, 0, 851994, 1, 0, 851995, 1, 0, 851996, 2, 3, 851997, 2, 65538, 917504, 2, 3, 917505, 2, 0, 917506, 2, 65538, 917507, 1, 0, 917508, 1, 0, 917509, 1, 0, 917510, 1, 0, 917511, 2, 3, 917512, 2, 0, 917513, 2, 0, 917514, 2, 0, 917515, 2, 0, 917516, 2, 0, 917517, 2, 0, 917518, 2, 65538, 917519, 1, 0, 917520, 1, 0, 917521, 1, 0, 917522, 1, 0, 917523, 1, 0, 917524, 1, 0, 917525, 1, 0, 917526, 1, 0, 917527, 1, 0, 917528, 1, 0, 917529, 1, 0, 917530, 1, 0, 917531, 1, 0, 917532, 2, 3, 917533, 2, 65538, 983040, 2, 3, 983041, 2, 0, 983042, 2, 196610, 983043, 2, 65539, 983044, 2, 65539, 983045, 2, 65539, 983046, 2, 65539, 983047, 2, 196611, 983048, 2, 0, 983049, 2, 0, 983050, 2, 0, 983051, 2, 0, 983052, 2, 0, 983053, 2, 0, 983054, 2, 196610, 983055, 2, 65539, 983056, 2, 65539, 983057, 2, 65539, 983058, 2, 65539, 983059, 2, 65539, 983060, 2, 65539, 983061, 2, 65539, 983062, 2, 65539, 983063, 2, 65539, 983064, 2, 65539, 983065, 2, 65539, 983066, 2, 65539, 983067, 2, 65539, 983068, 2, 196611, 983069, 2, 65538, 1048576, 2, 196608, 1048577, 2, 2, 1048578, 2, 2, 1048579, 2, 2, 1048580, 2, 2, 1048581, 2, 2, 1048582, 2, 2, 1048583, 2, 2, 1048584, 2, 2, 1048585, 2, 2, 1048586, 2, 2, 1048587, 2, 2, 1048588, 2, 2, 1048589, 2, 2, 1048590, 2, 2, 1048591, 2, 2, 1048592, 2, 2, 1048593, 2, 2, 1048594, 2, 2, 1048595, 2, 2, 1048596, 2, 2, 1048597, 2, 2, 1048598, 2, 2, 1048599, 2, 2, 1048600, 2, 2, 1048601, 2, 2, 1048602, 2, 2, 1048603, 2, 2, 1048604, 2, 2, 1048605, 2, 196609 )

[node name="Entities" type="YSort" parent="." index="1"]

sort_enabled = true

[node name="InitDoor" parent="Entities" index="0" instance=ExtResource( 2 )]

position = Vector2( 880.794, 90.4668 )
z_index = -1
_sections_unfolded = [ "Transform", "Z Index" ]
locked = true

[node name="EndCheck" parent="Entities" index="1" instance=ExtResource( 3 )]

position = Vector2( 934.513, 442.592 )
altar_scene = ExtResource( 4 )
new_part_scene = ExtResource( 5 )

[node name="Door2" parent="Entities" index="2" instance=ExtResource( 2 )]

position = Vector2( 154.411, 816.408 )
rotation = -1.5708
z_index = -2
_sections_unfolded = [ "Transform", "Z Index" ]
target_room = "res://rooms/game/Room3A.tscn"

[node name="Door3" parent="Entities" index="3" instance=ExtResource( 2 )]

position = Vector2( 1829.45, 521.888 )
rotation = 1.5708
z_index = -3
_sections_unfolded = [ "Transform", "Z Index" ]
target_room = "res://rooms/game/Room3C.tscn"

[node name="PlayerSpawn" parent="Entities" index="4" instance=ExtResource( 6 )]

position = Vector2( 880, 190 )

[node name="PlayerSpawn2" parent="Entities" index="5" instance=ExtResource( 6 )]

position = Vector2( 960, 170 )

[node name="PlayerSpawn3" parent="Entities" index="6" instance=ExtResource( 6 )]

position = Vector2( 820, 220 )
player_id = 2

[node name="PlayerSpawn4" parent="Entities" index="7" instance=ExtResource( 6 )]

position = Vector2( 780, 170 )
player_id = 3

[node name="Spawn" parent="Entities" index="8" instance=ExtResource( 7 )]

position = Vector2( 447.511, 580.99 )
delay = 2.0
times = 9
entity_scn = ExtResource( 8 )

[node name="Spawn2" parent="Entities" index="9" instance=ExtResource( 7 )]

position = Vector2( 1337.7, 865.247 )
delay = 3.0
period = 3.0
times = 6
entity_scn = ExtResource( 9 )

[node name="Transition" parent="." index="2" instance=ExtResource( 10 )]


