[gd_scene load_steps=2 format=2]

[ext_resource path="res://rooms/dummy-tileset.png" type="Texture" id=1]

[node name="TileSet" type="Node2D"]

[node name="Floor" type="Sprite" parent="." index="0"]

position = Vector2( 16, 0 )
texture = ExtResource( 1 )
region_enabled = true
region_rect = Rect2( 0, 0, 64, 64 )
_sections_unfolded = [ "Region" ]

[node name="Wall" type="Sprite" parent="." index="1"]

position = Vector2( 80, 0 )
texture = ExtResource( 1 )
region_enabled = true
region_rect = Rect2( 64, 0, 64, 64 )
_sections_unfolded = [ "Region" ]

[node name="StaticBody2D" type="StaticBody2D" parent="Wall" index="0"]

input_pickable = false
collision_layer = 1
collision_mask = 1
constant_linear_velocity = Vector2( 0, 0 )
constant_angular_velocity = 0.0
friction = 1.0
bounce = 0.0
__meta__ = {
"_edit_lock_": true
}

[node name="CollisionPolygon2D" type="CollisionPolygon2D" parent="Wall/StaticBody2D" index="0"]

build_mode = 0
polygon = PoolVector2Array( -32, -32, 32, -32, 32, 32, -32, 32 )
__meta__ = {
"_edit_lock_": true
}


