[gd_scene load_steps=4 format=2]

[ext_resource path="res://hud/HUD.gd" type="Script" id=1]
[ext_resource path="res://hud/PlayerHUD.tscn" type="PackedScene" id=2]
[ext_resource path="res://entities/components/CheckPlayerDeath.tscn" type="PackedScene" id=3]

[node name="HUD" type="CanvasLayer"]
script = ExtResource( 1 )

[node name="PlayerHUD1" parent="." instance=ExtResource( 2 )]
visible = false
margin_left = 1648.0
margin_top = 80.0
margin_right = 1648.0
margin_bottom = 80.0

[node name="PlayerHUD2" parent="." instance=ExtResource( 2 )]
visible = false
margin_left = 1648.0
margin_top = 304.0
margin_right = 1648.0
margin_bottom = 304.0

[node name="PlayerHUD3" parent="." instance=ExtResource( 2 )]
visible = false
margin_left = 1648.0
margin_top = 528.0
margin_right = 1648.0
margin_bottom = 528.0

[node name="PlayerHUD4" parent="." instance=ExtResource( 2 )]
visible = false
margin_left = 1648.0
margin_top = 752.0
margin_right = 1648.0
margin_bottom = 752.0

[node name="CheckPlayerDeath" parent="." instance=ExtResource( 3 )]

[editable path="CheckPlayerDeath"]
