[gd_scene load_steps=3 format=2]

[ext_resource path="res://rooms/events/Spawn.gd" type="Script" id=1]
[ext_resource path="res://rooms/events/portal34.png" type="Texture" id=2]

[node name="Spawn" type="Position2D" index="0" groups=[
"Spawners",
]]

script = ExtResource( 1 )
delay = 0.0
period = 1.0
times = 1
entity_scn = null

[node name="Timer" type="Timer" parent="." index="0"]

process_mode = 1
wait_time = 1.0
one_shot = false
autostart = false

[node name="Sprite" type="Sprite" parent="." index="1"]

scale = Vector2( 0.2, 0.2 )
texture = ExtResource( 2 )
_sections_unfolded = [ "Transform" ]

[connection signal="timeout" from="Timer" to="." method="_spawn"]


